<?xml version="1.0" encoding="UTF-8" standalone="no"?>
<!-- Created with Inkscape (http://www.inkscape.org/) -->

<svg
   width="700"
   height="700"
   viewBox="0 0 700 700"
   version="1.1"
   id="svg1"
   inkscape:version="1.3 (0e150ed6c4, 2023-07-21)"
   sodipodi:docname="transcript_python_structure.svg"
   xmlns:inkscape="http://www.inkscape.org/namespaces/inkscape"
   xmlns:sodipodi="http://sodipodi.sourceforge.net/DTD/sodipodi-0.dtd"
   xmlns:xlink="http://www.w3.org/1999/xlink"
   xmlns="http://www.w3.org/2000/svg"
   xmlns:svg="http://www.w3.org/2000/svg"
   xmlns:rdf="http://www.w3.org/1999/02/22-rdf-syntax-ns#"
   xmlns:cc="http://creativecommons.org/ns#"
   xmlns:dc="http://purl.org/dc/elements/1.1/">
  <sodipodi:namedview
     id="namedview1"
     pagecolor="#c8c8c8"
     bordercolor="#eeeeee"
     borderopacity="1"
     inkscape:showpageshadow="0"
     inkscape:pageopacity="0"
     inkscape:pagecheckerboard="0"
     inkscape:deskcolor="#d1d1d1"
     inkscape:document-units="mm"
     inkscape:export-bgcolor="#ffffffff"
     inkscape:zoom="1"
     inkscape:cx="325.5"
     inkscape:cy="340.5"
     inkscape:window-width="1888"
     inkscape:window-height="1144"
     inkscape:window-x="32"
     inkscape:window-y="0"
     inkscape:window-maximized="1"
     inkscape:current-layer="layer1" />
  <defs
     id="defs1">
    <marker
       style="overflow:visible"
       id="SemiCircleFilled"
       refX="0"
       refY="0"
       orient="auto"
       inkscape:stockid="Filled semicircle"
       markerWidth="1"
       markerHeight="1"
       viewBox="0 0 1 1"
       inkscape:isstock="true"
       inkscape:collect="always"
       preserveAspectRatio="xMidYMid">
      <path
         style="fill:context-stroke;fill-rule:evenodd;stroke:context-stroke;stroke-width:0.6pt"
         d="m -0.22470421,-0.02741555 c 0,1.656 1.344,3 3,3 v -6 c -1.656,0 -3,1.344 -3,3 z"
         id="path25" />
    </marker>
    <marker
       style="overflow:visible"
       id="marker33"
       refX="0"
       refY="0"
       orient="auto-start-reverse"
       inkscape:stockid="Arrow tail"
       markerWidth="1"
       markerHeight="1"
       viewBox="0 0 1 1"
       inkscape:isstock="true"
       inkscape:collect="always"
       preserveAspectRatio="xMidYMid">
      <path
         style="fill:none;fill-rule:evenodd;stroke:context-stroke;stroke-width:1;stroke-linecap:round"
         d="m -3.0000001,-3 -3.1102256,3 3.1102256,3 M -4.0952644e-8,-3 -3.0000001,0 -4.0952644e-8,3 M 3,3 -4.0952644e-8,0 3,-3"
         sodipodi:nodetypes="ccccccccc"
         id="path33" />
    </marker>
    <marker
       style="overflow:visible"
       id="Tail"
       refX="0"
       refY="0"
       orient="auto-start-reverse"
       inkscape:stockid="Arrow tail"
       markerWidth="1"
       markerHeight="1"
       viewBox="0 0 1 1"
       inkscape:isstock="true"
       inkscape:collect="always"
       preserveAspectRatio="xMidYMid">
      <path
         style="fill:none;fill-rule:evenodd;stroke:context-stroke;stroke-width:1;stroke-linecap:round"
         d="m -3.0000001,-3 -3.1102256,3 3.1102256,3 M -4.0952644e-8,-3 -3.0000001,0 -4.0952644e-8,3 M 3,3 -4.0952644e-8,0 3,-3"
         sodipodi:nodetypes="ccccccccc"
         id="path10" />
    </marker>
    <marker
       style="overflow:visible"
       id="marker21"
       refX="0"
       refY="0"
       orient="auto-start-reverse"
       inkscape:stockid="Triangle arrow"
       markerWidth="1"
       markerHeight="1"
       viewBox="0 0 1 1"
       inkscape:isstock="true"
       inkscape:collect="always"
       preserveAspectRatio="xMidYMid">
      <path
         transform="scale(0.5)"
         style="fill:context-stroke;fill-rule:evenodd;stroke:context-stroke;stroke-width:1pt"
         d="M 5.77,0 -2.88,5 V -5 Z"
         id="path21" />
    </marker>
    <marker
       style="overflow:visible"
       id="Triangle"
       refX="0"
       refY="0"
       orient="auto-start-reverse"
       inkscape:stockid="Triangle arrow"
       markerWidth="1"
       markerHeight="1"
       viewBox="0 0 1 1"
       inkscape:isstock="true"
       inkscape:collect="always"
       preserveAspectRatio="xMidYMid">
      <path
         transform="scale(0.5)"
         style="fill:context-stroke;fill-rule:evenodd;stroke:context-stroke;stroke-width:1pt"
         d="M 5.77,0 -2.88,5 V -5 Z"
         id="path135" />
    </marker>
    <linearGradient
       id="b"
       x1="28.809"
       y1="28.882"
       x2="45.803001"
       y2="45.162998"
       gradientUnits="userSpaceOnUse"
       gradientTransform="matrix(1.7421808,0,0,1.7421808,368.60083,190.73025)">
      <stop
         stop-color="#FFE052"
         id="stop4" />
      <stop
         offset="1"
         stop-color="#FFC331"
         id="stop5" />
    </linearGradient>
    <linearGradient
       id="a"
       x1="19.075001"
       y1="18.782"
       x2="34.897999"
       y2="34.658001"
       gradientUnits="userSpaceOnUse"
       gradientTransform="matrix(1.7421808,0,0,1.7421808,368.60083,190.73025)">
      <stop
         stop-color="#387EB8"
         id="stop2" />
      <stop
         offset="1"
         stop-color="#366994"
         id="stop3" />
    </linearGradient>
    <marker
       style="overflow:visible"
       id="marker21-9"
       refX="0"
       refY="0"
       orient="auto-start-reverse"
       inkscape:stockid="Triangle arrow"
       markerWidth="1"
       markerHeight="1"
       viewBox="0 0 1 1"
       inkscape:isstock="true"
       inkscape:collect="always"
       preserveAspectRatio="xMidYMid">
      <path
         transform="scale(0.5)"
         style="fill:context-stroke;fill-rule:evenodd;stroke:context-stroke;stroke-width:1pt"
         d="M 5.77,0 -2.88,5 V -5 Z"
         id="path21-2" />
    </marker>
    <marker
       style="overflow:visible"
       id="marker21-9-5"
       refX="0"
       refY="0"
       orient="auto-start-reverse"
       inkscape:stockid="Triangle arrow"
       markerWidth="1"
       markerHeight="1"
       viewBox="0 0 1 1"
       inkscape:isstock="true"
       inkscape:collect="always"
       preserveAspectRatio="xMidYMid">
      <path
         transform="scale(0.5)"
         style="fill:context-stroke;fill-rule:evenodd;stroke:context-stroke;stroke-width:1pt"
         d="M 5.77,0 -2.88,5 V -5 Z"
         id="path21-2-9" />
    </marker>
    <marker
       style="overflow:visible"
       id="marker21-9-7"
       refX="0"
       refY="0"
       orient="auto-start-reverse"
       inkscape:stockid="Triangle arrow"
       markerWidth="1"
       markerHeight="1"
       viewBox="0 0 1 1"
       inkscape:isstock="true"
       inkscape:collect="always"
       preserveAspectRatio="xMidYMid">
      <path
         transform="scale(0.5)"
         style="fill:context-stroke;fill-rule:evenodd;stroke:context-stroke;stroke-width:1pt"
         d="M 5.77,0 -2.88,5 V -5 Z"
         id="path21-2-6" />
    </marker>
    <marker
       style="overflow:visible"
       id="marker21-9-74"
       refX="0"
       refY="0"
       orient="auto-start-reverse"
       inkscape:stockid="Triangle arrow"
       markerWidth="1"
       markerHeight="1"
       viewBox="0 0 1 1"
       inkscape:isstock="true"
       inkscape:collect="always"
       preserveAspectRatio="xMidYMid">
      <path
         transform="scale(0.5)"
         style="fill:context-stroke;fill-rule:evenodd;stroke:context-stroke;stroke-width:1pt"
         d="M 5.77,0 -2.88,5 V -5 Z"
         id="path21-2-5" />
    </marker>
    <marker
       style="overflow:visible"
       id="marker21-9-5-4"
       refX="0"
       refY="0"
       orient="auto-start-reverse"
       inkscape:stockid="Triangle arrow"
       markerWidth="1"
       markerHeight="1"
       viewBox="0 0 1 1"
       inkscape:isstock="true"
       inkscape:collect="always"
       preserveAspectRatio="xMidYMid">
      <path
         transform="scale(0.5)"
         style="fill:context-stroke;fill-rule:evenodd;stroke:context-stroke;stroke-width:1pt"
         d="M 5.77,0 -2.88,5 V -5 Z"
         id="path21-2-9-4" />
    </marker>
    <marker
       style="overflow:visible"
       id="marker21-9-5-4-6"
       refX="0"
       refY="0"
       orient="auto-start-reverse"
       inkscape:stockid="Triangle arrow"
       markerWidth="1"
       markerHeight="1"
       viewBox="0 0 1 1"
       inkscape:isstock="true"
       inkscape:collect="always"
       preserveAspectRatio="xMidYMid">
      <path
         transform="scale(0.5)"
         style="fill:context-stroke;fill-rule:evenodd;stroke:context-stroke;stroke-width:1pt"
         d="M 5.77,0 -2.88,5 V -5 Z"
         id="path21-2-9-4-8" />
    </marker>
    <marker
       style="overflow:visible"
       id="marker21-9-0"
       refX="0"
       refY="0"
       orient="auto-start-reverse"
       inkscape:stockid="Triangle arrow"
       markerWidth="1"
       markerHeight="1"
       viewBox="0 0 1 1"
       inkscape:isstock="true"
       inkscape:collect="always"
       preserveAspectRatio="xMidYMid">
      <path
         transform="scale(0.5)"
         style="fill:context-stroke;fill-rule:evenodd;stroke:context-stroke;stroke-width:1pt"
         d="M 5.77,0 -2.88,5 V -5 Z"
         id="path21-2-4" />
    </marker>
    <marker
       style="overflow:visible"
       id="marker21-9-5-1"
       refX="0"
       refY="0"
       orient="auto-start-reverse"
       inkscape:stockid="Triangle arrow"
       markerWidth="1"
       markerHeight="1"
       viewBox="0 0 1 1"
       inkscape:isstock="true"
       inkscape:collect="always"
       preserveAspectRatio="xMidYMid">
      <path
         transform="scale(0.5)"
         style="fill:context-stroke;fill-rule:evenodd;stroke:context-stroke;stroke-width:1pt"
         d="M 5.77,0 -2.88,5 V -5 Z"
         id="path21-2-9-29" />
    </marker>
    <marker
       style="overflow:visible"
       id="marker21-9-8"
       refX="0"
       refY="0"
       orient="auto-start-reverse"
       inkscape:stockid="Triangle arrow"
       markerWidth="1"
       markerHeight="1"
       viewBox="0 0 1 1"
       inkscape:isstock="true"
       inkscape:collect="always"
       preserveAspectRatio="xMidYMid">
      <path
         transform="scale(0.5)"
         style="fill:context-stroke;fill-rule:evenodd;stroke:context-stroke;stroke-width:1pt"
         d="M 5.77,0 -2.88,5 V -5 Z"
         id="path21-2-50" />
    </marker>
    <marker
       style="overflow:visible"
       id="marker21-9-8-6"
       refX="0"
       refY="0"
       orient="auto-start-reverse"
       inkscape:stockid="Triangle arrow"
       markerWidth="1"
       markerHeight="1"
       viewBox="0 0 1 1"
       inkscape:isstock="true"
       inkscape:collect="always"
       preserveAspectRatio="xMidYMid">
      <path
         transform="scale(0.5)"
         style="fill:context-stroke;fill-rule:evenodd;stroke:context-stroke;stroke-width:1pt"
         d="M 5.77,0 -2.88,5 V -5 Z"
         id="path21-2-50-3" />
    </marker>
    <marker
       style="overflow:visible"
       id="marker21-9-5-6"
       refX="0"
       refY="0"
       orient="auto-start-reverse"
       inkscape:stockid="Triangle arrow"
       markerWidth="1"
       markerHeight="1"
       viewBox="0 0 1 1"
       inkscape:isstock="true"
       inkscape:collect="always"
       preserveAspectRatio="xMidYMid">
      <path
         transform="scale(0.5)"
         style="fill:context-stroke;fill-rule:evenodd;stroke:context-stroke;stroke-width:1pt"
         d="M 5.77,0 -2.88,5 V -5 Z"
         id="path21-2-9-21" />
    </marker>
    <marker
       style="overflow:visible"
       id="marker21-9-8-5"
       refX="0"
       refY="0"
       orient="auto-start-reverse"
       inkscape:stockid="Triangle arrow"
       markerWidth="1"
       markerHeight="1"
       viewBox="0 0 1 1"
       inkscape:isstock="true"
       inkscape:collect="always"
       preserveAspectRatio="xMidYMid">
      <path
         transform="scale(0.5)"
         style="fill:context-stroke;fill-rule:evenodd;stroke:context-stroke;stroke-width:1pt"
         d="M 5.77,0 -2.88,5 V -5 Z"
         id="path21-2-50-38" />
    </marker>
    <marker
       style="overflow:visible"
       id="marker21-9-8-9"
       refX="0"
       refY="0"
       orient="auto-start-reverse"
       inkscape:stockid="Triangle arrow"
       markerWidth="1"
       markerHeight="1"
       viewBox="0 0 1 1"
       inkscape:isstock="true"
       inkscape:collect="always"
       preserveAspectRatio="xMidYMid">
      <path
         transform="scale(0.5)"
         style="fill:context-stroke;fill-rule:evenodd;stroke:context-stroke;stroke-width:1pt"
         d="M 5.77,0 -2.88,5 V -5 Z"
         id="path21-2-50-6" />
    </marker>
    <marker
       style="overflow:visible"
       id="SemiCircleFilled-8"
       refX="0"
       refY="0"
       orient="auto"
       inkscape:stockid="Filled semicircle"
       markerWidth="1"
       markerHeight="1"
       viewBox="0 0 1 1"
       inkscape:isstock="true"
       inkscape:collect="always"
       preserveAspectRatio="xMidYMid">
      <path
         style="fill:context-stroke;fill-rule:evenodd;stroke:context-stroke;stroke-width:0.6pt"
         d="m -0.22470421,-0.02741555 c 0,1.65599995 1.34400001,2.99999995 3.00000001,2.99999995 v -6 c -1.656,0 -3.00000001,1.344 -3.00000001,3.00000005 z"
         id="path25-0" />
    </marker>
    <marker
       style="overflow:visible"
       id="SemiCircleFilled-1"
       refX="0"
       refY="0"
       orient="auto"
       inkscape:stockid="Filled semicircle"
       markerWidth="1"
       markerHeight="1"
       viewBox="0 0 1 1"
       inkscape:isstock="true"
       inkscape:collect="always"
       preserveAspectRatio="xMidYMid">
      <path
         style="fill:context-stroke;fill-rule:evenodd;stroke:context-stroke;stroke-width:0.6pt"
         d="m -0.22470421,-0.02741555 c 0,1.65599995 1.34400001,2.99999995 3.00000001,2.99999995 v -6 c -1.656,0 -3.00000001,1.344 -3.00000001,3.00000005 z"
         id="path25-1" />
    </marker>
    <marker
       style="overflow:visible"
       id="SemiCircleFilled-6"
       refX="0"
       refY="0"
       orient="auto"
       inkscape:stockid="Filled semicircle"
       markerWidth="1"
       markerHeight="1"
       viewBox="0 0 1 1"
       inkscape:isstock="true"
       inkscape:collect="always"
       preserveAspectRatio="xMidYMid">
      <path
         style="fill:context-stroke;fill-rule:evenodd;stroke:context-stroke;stroke-width:0.6pt"
         d="m -0.22470421,-0.02741555 c 0,1.65599995 1.34400001,2.99999995 3.00000001,2.99999995 v -6 c -1.656,0 -3.00000001,1.344 -3.00000001,3.00000005 z"
         id="path25-4" />
    </marker>
    <marker
       style="overflow:visible"
       id="SemiCircleFilled-1-6"
       refX="0"
       refY="0"
       orient="auto"
       inkscape:stockid="Filled semicircle"
       markerWidth="1"
       markerHeight="1"
       viewBox="0 0 1 1"
       inkscape:isstock="true"
       inkscape:collect="always"
       preserveAspectRatio="xMidYMid">
      <path
         style="fill:context-stroke;fill-rule:evenodd;stroke:context-stroke;stroke-width:0.6pt"
         d="m -0.22470421,-0.02741555 c 0,1.65599995 1.34400001,2.99999995 3.00000001,2.99999995 v -6 c -1.656,0 -3.00000001,1.344 -3.00000001,3.00000005 z"
         id="path25-1-2" />
    </marker>
  </defs>
  <g
     inkscape:label="Squares"
     inkscape:groupmode="layer"
     id="layer1">
    <rect
       style="display:inline;fill:#dddddd;fill-opacity:1;fill-rule:evenodd;stroke:none;stroke-width:0;stroke-linecap:round;stroke-linejoin:round;stroke-miterlimit:0;stroke-dasharray:none;stroke-dashoffset:0;stroke-opacity:1"
       id="rect36"
       width="700"
       height="700"
       x="0"
       y="0"
       inkscape:label="Background"
       sodipodi:insensitive="true" />
    <rect
       style="opacity:0.99;fill:#cccccc;fill-opacity:1;fill-rule:evenodd;stroke:#555555;stroke-width:3.77953;stroke-linecap:round;stroke-linejoin:round;stroke-miterlimit:0;stroke-dasharray:none;stroke-opacity:1"
       id="rect5"
       width="211.08786"
       height="507.63766"
       x="20.410328"
       y="173.24945" />
    <rect
       style="opacity:0.99;fill:#bbbbd1;fill-opacity:1;fill-rule:evenodd;stroke:#555555;stroke-width:3.77953;stroke-linecap:round;stroke-linejoin:round;stroke-miterlimit:0;stroke-dasharray:none;stroke-opacity:1"
       id="rect7"
       width="186.97061"
       height="126.0596"
       x="32.176876"
       y="425.94156" />
    <rect
       style="opacity:0.99;fill:#bceabc;fill-opacity:1;fill-rule:evenodd;stroke:#333333;stroke-width:3.77953;stroke-linecap:round;stroke-linejoin:round;stroke-miterlimit:0;stroke-dasharray:none;stroke-opacity:1"
       id="rect10-6"
       width="163.72253"
       height="66.829231"
       x="41.614807"
       y="469.97324" />
    <rect
       style="opacity:0.99;fill:#ccbbbb;fill-opacity:1;fill-rule:evenodd;stroke:#555555;stroke-width:3.77953;stroke-linecap:round;stroke-linejoin:round;stroke-miterlimit:0;stroke-dasharray:none;stroke-opacity:1"
       id="rect7-6"
       width="186.97061"
       height="101.20438"
       x="32.322384"
       y="565.82043" />
    <rect
       style="opacity:0.99;fill:#bceabc;fill-opacity:1;fill-rule:evenodd;stroke:#333333;stroke-width:3.77953;stroke-linecap:round;stroke-linejoin:round;stroke-miterlimit:0;stroke-dasharray:none;stroke-opacity:1"
       id="rect10-6-3"
       width="163.10318"
       height="44.312531"
       x="41.760315"
       y="609.85211" />
    <g
       inkscape:groupmode="layer"
       id="layer5"
       inkscape:label="Translation">
      <rect
         style="opacity:0.99;fill:#bbd0bb;fill-opacity:1;fill-rule:evenodd;stroke:#555555;stroke-width:3.77953;stroke-linecap:round;stroke-linejoin:round;stroke-miterlimit:0;stroke-dasharray:none;stroke-opacity:1"
         id="rect6"
         width="188.72849"
         height="195.42944"
         x="32.316849"
         y="215.01695" />
      <rect
         style="opacity:0.99;fill:#bceabc;fill-opacity:1;fill-rule:evenodd;stroke:#333333;stroke-width:3.77953;stroke-linecap:round;stroke-linejoin:round;stroke-miterlimit:0;stroke-dasharray:none;stroke-opacity:1"
         id="rect10"
         width="163.72253"
         height="66.829231"
         x="45.2556"
         y="334.89429" />
      <rect
         style="opacity:0.99;fill:#bcd6ec;fill-opacity:1;fill-rule:evenodd;stroke:#333333;stroke-width:3.77953;stroke-linecap:round;stroke-linejoin:round;stroke-miterlimit:0;stroke-dasharray:none;stroke-opacity:1"
         id="rect9"
         width="163.63243"
         height="70.425377"
         x="44.313282"
         y="254.02226" />
    </g>
    <rect
       style="opacity:0.99;fill:#dfccbc;fill-opacity:1;fill-rule:evenodd;stroke:#333333;stroke-width:3.77953;stroke-linecap:round;stroke-linejoin:round;stroke-miterlimit:0;stroke-dasharray:none;stroke-opacity:1"
       id="rect8"
       width="101.00354"
       height="48.362865"
       x="240.26947"
       y="22.833178" />
    <rect
       style="opacity:0.99;fill:#e0c4d7;fill-opacity:1;fill-rule:evenodd;stroke-width:3.77952756;stroke-linecap:round;stroke-linejoin:round;stroke-miterlimit:0;stroke-dasharray:none;stroke:#333333;stroke-opacity:1"
       id="rect1"
       width="128.27121"
       height="120.32657"
       x="20.118896"
       y="16.087784" />
    <rect
       style="opacity:0.99;fill:#dedca6;fill-opacity:1;fill-rule:evenodd;stroke:#7f6000;stroke-width:3.02362;stroke-linecap:round;stroke-linejoin:round;stroke-miterlimit:0;stroke-dasharray:none;stroke-opacity:1"
       id="rect26"
       width="133.31943"
       height="125.00603"
       x="255.11948"
       y="572.16998" />
    <rect
       style="opacity:0.99;fill:#dedca6;fill-opacity:1;fill-rule:evenodd;stroke:#7f6000;stroke-width:3.02362;stroke-linecap:round;stroke-linejoin:round;stroke-miterlimit:0;stroke-dasharray:none;stroke-opacity:1"
       id="rect26-9"
       width="120.79839"
       height="93.147408"
       x="542.05316"
       y="604.52216" />
  </g>
  <g
     inkscape:groupmode="layer"
     id="layer2"
     inkscape:label="Python">
    <g
       id="g7"
       inkscape:label="icon_source"
       transform="translate(358.67028,-75.618184)">
      <path
         d="m 424.15027,218.60514 c -14.15347,0 -13.27019,6.1377 -13.27019,6.1377 l 0.0174,6.35896 h 13.50539 v 1.90769 h -18.87305 c 0,0 -9.05411,-1.02789 -9.05411,13.25451 0,14.27892 7.90427,13.77368 7.90427,13.77368 h 4.71783 v -6.62725 c 0,0 -0.25436,-7.90428 7.77884,-7.90428 h 13.39388 c 0,0 7.52622,0.12196 7.52622,-7.2736 v -12.22837 c 0,0 1.14287,-7.39904 -13.6465,-7.39904 z m -7.44782,4.27531 c 1.34322,0 2.43034,1.08712 2.43034,2.43034 0,1.34323 -1.08712,2.43035 -2.43034,2.43035 a 2.4268578,2.4268578 0 0 1 -2.43034,-2.43035 c 0,-1.34322 1.08712,-2.43034 2.43034,-2.43034 z"
         fill="url(#a)"
         id="path1"
         style="fill:url(#a);stroke-width:1.74218" />
      <path
         d="m 424.55097,274.06398 c 14.15348,0 13.27019,-6.1377 13.27019,-6.1377 l -0.0174,-6.35896 h -13.50538 v -1.90769 h 18.8713 c 0,0 9.05586,1.02789 9.05586,-13.25277 0,-14.28065 -7.90428,-13.77368 -7.90428,-13.77368 h -4.71782 v 6.62551 c 0,0 0.25435,7.90428 -7.77884,7.90428 h -13.39389 c 0,0 -7.52622,-0.12196 -7.52622,7.2736 v 12.22837 c 0,0 -1.14287,7.39904 13.6465,7.39904 z m 7.44783,-4.27531 a 2.4268578,2.4268578 0 0 1 -2.43035,-2.43034 c 0,-1.34148 1.08712,-2.4286 2.43035,-2.4286 1.34322,0 2.43034,1.08538 2.43034,2.4286 0,1.34496 -1.08712,2.43034 -2.43034,2.43034 z"
         fill="url(#b)"
         id="path2"
         style="fill:url(#b);stroke-width:1.74218" />
    </g>
    <g
       id="g15"
       inkscape:label="svg"
       transform="translate(4.4781494,5.9194488)">
      <use
         x="0"
         y="0"
         xlink:href="#g7"
         id="use14"
         transform="matrix(0.68292329,0,0,0.68292329,-246.23884,165.59334)" />
      <text
         xml:space="preserve"
         style="font-style:normal;font-weight:normal;font-size:16px;line-height:1.25;font-family:sans-serif;fill:#000000;fill-opacity:1;stroke:none"
         x="276.2504"
         y="317.55136"
         id="text15"><tspan
           sodipodi:role="line"
           id="tspan15"
           x="276.2504"
           y="317.55136"
           style="font-size:16px">svg</tspan></text>
    </g>
    <g
       id="g15-5"
       inkscape:label="polib"
       transform="translate(-101.98028,-198.96209)">
      <use
         x="0"
         y="0"
         xlink:href="#g7"
         id="use14-4"
         transform="matrix(0.68292329,0,0,0.68292329,-246.23884,165.59334)" />
      <text
         xml:space="preserve"
         style="font-style:normal;font-weight:normal;font-size:16px;line-height:1.25;font-family:sans-serif;fill:#000000;fill-opacity:1;stroke:none"
         x="270.63467"
         y="317.55136"
         id="text15-0"><tspan
           sodipodi:role="line"
           id="tspan15-5"
           x="270.63467"
           y="317.55136"
           style="font-size:16px">polib</tspan></text>
    </g>
    <g
       id="g15-6"
       inkscape:label="markdown"
       transform="translate(4.5628683,78.048853)">
      <use
         x="0"
         y="0"
         xlink:href="#g7"
         id="use14-2"
         transform="matrix(0.68292329,0,0,0.68292329,-246.23884,165.59334)" />
      <text
         xml:space="preserve"
         style="font-style:normal;font-weight:normal;font-size:16px;line-height:1.25;font-family:sans-serif;fill:#000000;fill-opacity:1;stroke:none"
         x="289.39752"
         y="317.27173"
         id="text15-6"><tspan
           sodipodi:role="line"
           id="tspan15-1"
           x="289.39752"
           y="317.27173"
           style="font-size:16px;text-align:center;text-anchor:middle">markdown</tspan><tspan
           sodipodi:role="line"
           x="289.39752"
           y="337.27173"
           style="font-size:16px;text-align:center;text-anchor:middle"
           id="tspan27">(write)</tspan></text>
    </g>
    <g
       id="g17"
       transform="translate(22.300956,20.452277)"
       inkscape:label="extract_text">
      <use
         x="0"
         y="0"
         xlink:href="#g7"
         id="use16"
         transform="translate(-356.06844,97.049284)" />
      <text
         xml:space="preserve"
         style="font-style:normal;font-weight:normal;font-size:16px;line-height:1.25;font-family:sans-serif;fill:#000000;fill-opacity:1;stroke:none"
         x="383.22061"
         y="311.35852"
         id="text16"><tspan
           sodipodi:role="line"
           id="tspan16"
           x="383.22061"
           y="311.35852"
           style="font-size:16px">extract_text</tspan></text>
    </g>
    <g
       id="g18"
       transform="translate(33.6891,3.3695779)"
       inkscape:label="extract_custom">
      <use
         x="0"
         y="0"
         xlink:href="#g7"
         id="use8"
         transform="translate(-357.52835,-112.91213)" />
      <text
         xml:space="preserve"
         style="font-style:normal;font-weight:normal;font-size:16px;line-height:1.25;font-family:sans-serif;fill:#000000;fill-opacity:1;stroke:none"
         x="371.59253"
         y="100.54055"
         id="text17"><tspan
           sodipodi:role="line"
           id="tspan17"
           x="371.59253"
           y="100.54055"
           style="font-size:16px">extract_custom</tspan></text>
    </g>
    <g
       id="g26"
       transform="translate(-10.815617,-16.502812)"
       inkscape:label="regenerate_transcripts">
      <use
         x="0"
         y="0"
         xlink:href="#g7"
         id="use7"
         transform="translate(-176.38966,12.955882)" />
      <text
         xml:space="preserve"
         style="font-style:normal;font-weight:normal;font-size:16px;line-height:1.25;font-family:sans-serif;fill:#000000;fill-opacity:1;stroke:none"
         x="525.83337"
         y="228.86671"
         id="text22"><tspan
           sodipodi:role="line"
           id="tspan22"
           x="525.83337"
           y="228.86671"
           style="font-size:16px">regenerate_transcripts</tspan></text>
    </g>
    <g
       id="g25"
       transform="translate(31.721009,153.35477)"
       inkscape:label="extract_to_html">
      <use
         x="0"
         y="0"
         xlink:href="#g7"
         id="use17"
         transform="translate(-353.55788,245.90038)" />
      <text
         xml:space="preserve"
         style="font-style:normal;font-weight:normal;font-size:16px;line-height:1.25;font-family:sans-serif;fill:#000000;fill-opacity:1;stroke:none"
         x="373.56567"
         y="462.13757"
         id="text25"><tspan
           sodipodi:role="line"
           id="tspan25"
           x="373.56567"
           y="462.13757"
           style="font-size:16px">extract_to_html</tspan></text>
    </g>
    <g
       id="g15-6-9"
       inkscape:label="markdown"
       transform="translate(7.827211,196.36209)">
      <use
         x="0"
         y="0"
         xlink:href="#g7"
         id="use14-2-3"
         transform="matrix(0.68292329,0,0,0.68292329,-246.23884,165.59334)" />
      <text
         xml:space="preserve"
         style="font-style:normal;font-weight:normal;font-size:16px;line-height:1.25;font-family:sans-serif;fill:#000000;fill-opacity:1;stroke:none"
         x="289.39752"
         y="317.27173"
         id="text15-6-1"><tspan
           sodipodi:role="line"
           id="tspan15-1-9"
           x="289.39752"
           y="317.27173"
           style="font-size:16px;text-align:center;text-anchor:middle">markdown</tspan><tspan
           sodipodi:role="line"
           x="289.39752"
           y="337.27173"
           style="font-size:16px;text-align:center;text-anchor:middle"
           id="tspan26-4">(read)</tspan></text>
    </g>
    <g
       id="g25-9"
       transform="translate(167.46376,42.590652)">
      <use
         x="0"
         y="0"
         xlink:href="#g7"
         id="use17-8"
         transform="translate(-353.55788,245.90038)" />
      <text
         xml:space="preserve"
         style="font-style:normal;font-weight:normal;font-size:16px;line-height:1.25;font-family:sans-serif;fill:#000000;fill-opacity:1;stroke:none"
         x="373.56567"
         y="462.13757"
         id="text25-4"><tspan
           sodipodi:role="line"
           id="tspan25-8"
           x="373.56567"
           y="462.13757"
           style="font-size:16px">combined_</tspan><tspan
           sodipodi:role="line"
           x="373.56567"
           y="482.13757"
           style="font-size:16px"
           id="tspan6">html_generator</tspan></text>
    </g>
  </g>
  <g
     inkscape:groupmode="layer"
     id="layer3"
     inkscape:label="Text">
    <text
       xml:space="preserve"
       style="font-style:normal;font-weight:normal;font-size:18.6667px;line-height:1.25;font-family:sans-serif;fill:#000000;fill-opacity:1;stroke:none"
       x="252.84991"
       y="53.907593"
       id="text8"><tspan
         sodipodi:role="line"
         id="tspan8"
         x="252.84991"
         y="53.907593"
         style="font-size:18.6667px">combine</tspan></text>
    <text
       xml:space="preserve"
       style="font-style:normal;font-weight:normal;font-size:21.3333px;line-height:1.25;font-family:sans-serif;fill:#000000;fill-opacity:1;stroke:none"
       x="44.509911"
       y="240.22163"
       id="text7"><tspan
         sodipodi:role="line"
         id="tspan7"
         x="44.509911"
         y="240.22163"
         style="font-size:21.3333px">Translation</tspan></text>
    <text
       xml:space="preserve"
       style="font-style:normal;font-weight:normal;font-size:18.6667px;line-height:1.25;font-family:sans-serif;fill:#000000;fill-opacity:1;stroke:none"
       x="34.504543"
       y="43.959061"
       id="text1"><tspan
         sodipodi:role="line"
         id="tspan1"
         x="34.504543"
         y="43.959061"
         style="font-size:18.6667px">translation_</tspan><tspan
         sodipodi:role="line"
         x="34.504543"
         y="67.292435"
         id="tspan2"
         style="font-size:18.6667px">names_</tspan><tspan
         sodipodi:role="line"
         x="34.504543"
         y="90.625809"
         id="tspan3"
         style="font-size:18.6667px">references</tspan><tspan
         sodipodi:role="line"
         x="34.504543"
         y="113.95919"
         id="tspan4"
         style="font-size:18.6667px">(.po files)</tspan></text>
    <text
       xml:space="preserve"
       style="font-style:normal;font-weight:normal;font-size:21.3333px;line-height:1.25;font-family:sans-serif;fill:#000000;fill-opacity:1;stroke:none"
       x="33.099926"
       y="199.40988"
       id="text5"><tspan
         sodipodi:role="line"
         id="tspan5"
         x="33.099926"
         y="199.40988"
         style="font-size:21.3333px">Episode</tspan></text>
    <text
       xml:space="preserve"
       style="font-style:normal;font-weight:normal;font-size:21.3333px;line-height:1.25;font-family:sans-serif;text-align:center;text-anchor:middle;fill:#000000;fill-opacity:1;stroke:none"
       x="123.53696"
       y="282.54962"
       id="text10"><tspan
         sodipodi:role="line"
         id="tspan10"
         x="123.53696"
         y="282.54962"
         style="font-size:21.3333px;text-align:center;text-anchor:middle">SVG files</tspan><tspan
         sodipodi:role="line"
         x="123.53696"
         y="309.21625"
         style="font-size:21.3333px;text-align:center;text-anchor:middle"
         id="tspan12">(Inkscape)</tspan></text>
    <text
       xml:space="preserve"
       style="font-style:normal;font-weight:normal;font-size:21.3333px;line-height:1.25;font-family:sans-serif;text-align:center;text-anchor:middle;fill:#000000;fill-opacity:1;stroke:none"
       x="127.51043"
       y="360.48239"
       id="text11"><tspan
         sodipodi:role="line"
         id="tspan11"
         x="127.51043"
         y="360.48239"
         style="font-size:21.3333px;text-align:center;text-anchor:middle">transcript.md</tspan><tspan
         sodipodi:role="line"
         x="127.51043"
         y="387.14902"
         style="font-size:21.3333px;text-align:center;text-anchor:middle"
         id="tspan13">(Markdown)</tspan></text>
    <text
       xml:space="preserve"
       style="font-style:normal;font-weight:normal;font-size:21.3333px;line-height:1.25;font-family:sans-serif;text-align:center;text-anchor:middle;fill:#000000;fill-opacity:1;stroke:none"
       x="122.82816"
       y="496.17468"
       id="text11-2"><tspan
         sodipodi:role="line"
         id="tspan11-9"
         x="122.82816"
         y="496.17468"
         style="font-size:21.3333px;text-align:center;text-anchor:middle">transcript.md</tspan><tspan
         sodipodi:role="line"
         x="122.82816"
         y="522.84131"
         style="font-size:21.3333px;text-align:center;text-anchor:middle"
         id="tspan13-1">(Markdown)</tspan></text>
    <text
       xml:space="preserve"
       style="font-style:normal;font-weight:normal;font-size:16px;line-height:1.25;font-family:sans-serif;fill:#000000;fill-opacity:1;stroke:none"
       x="257.49158"
       y="568.50958"
       id="text35"><tspan
         sodipodi:role="line"
         id="tspan35"
         x="257.49158"
         y="568.50958"
         style="font-size:16px">episode/hi-res/html</tspan></text>
    <text
       xml:space="preserve"
       style="font-style:normal;font-weight:normal;font-size:16px;line-height:1.25;font-family:sans-serif;fill:#000000;fill-opacity:1;stroke:none"
       x="521.96948"
       y="600.1748"
       id="text36"><tspan
         sodipodi:role="line"
         id="tspan36"
         x="521.96948"
         y="600.1748"
         style="font-size:16px">0_transcripts/lang/html</tspan></text>
    <text
       xml:space="preserve"
       style="font-style:normal;font-weight:normal;font-size:18.6667px;line-height:1.25;font-family:sans-serif;fill:#000000;fill-opacity:1;stroke:none"
       x="42.931961"
       y="453.37344"
       id="text14"><tspan
         sodipodi:role="line"
         id="tspan14"
         x="42.931961"
         y="453.37344"
         style="font-size:18.6667px">English: as failover</tspan></text>
    <text
       xml:space="preserve"
       style="font-style:normal;font-weight:normal;font-size:21.3333px;line-height:1.25;font-family:sans-serif;fill:#000000;fill-opacity:1;stroke:none"
       x="58.533092"
       y="638.44794"
       id="text11-2-2"><tspan
         sodipodi:role="line"
         x="58.533092"
         y="638.44794"
         style="font-size:21.3333px"
         id="tspan13-1-6">transcript.md</tspan></text>
    <text
       xml:space="preserve"
       style="font-style:normal;font-weight:normal;font-size:18.6667px;line-height:1.25;font-family:sans-serif;fill:#000000;fill-opacity:1;stroke:none"
       x="47.344776"
       y="595.24799"
       id="text14-1"><tspan
         sodipodi:role="line"
         id="tspan14-5"
         x="47.344776"
         y="595.24799"
         style="font-size:18.6667px">Custom failover</tspan></text>
    <text
       xml:space="preserve"
       style="font-style:normal;font-weight:normal;font-size:16px;line-height:1;font-family:sans-serif;fill:#000000;fill-opacity:1;stroke:none"
       x="265.52896"
       y="593.15979"
       id="text9"><tspan
         sodipodi:role="line"
         id="tspan9"
         x="265.52896"
         y="593.15979"
         style="font-size:16px;line-height:1">fr_E11P00.html</tspan><tspan
         sodipodi:role="line"
         x="265.52896"
         y="609.15979"
         id="tspan18"
         style="font-size:16px;line-height:1">fr_E11P01.html</tspan><tspan
         sodipodi:role="line"
         x="265.52896"
         y="625.15979"
         id="tspan19"
         style="font-size:16px;line-height:1">fr_E11P02.html</tspan><tspan
         sodipodi:role="line"
         x="265.52896"
         y="641.15979"
         id="tspan20"
         style="font-size:16px;line-height:1">fr_E11P03.html</tspan><tspan
         sodipodi:role="line"
         x="265.52896"
         y="657.15979"
         id="tspan21"
         style="font-size:16px;line-height:1">fr_E11P04.html</tspan><tspan
         sodipodi:role="line"
         x="265.52896"
         y="673.15979"
         id="tspan23"
         style="font-size:16px;line-height:1">fr_E11P05.html</tspan><tspan
         sodipodi:role="line"
         x="265.52896"
         y="689.15979"
         id="tspan26"
         style="font-size:16px;line-height:1">fr_E11P06.html</tspan></text>
    <text
       xml:space="preserve"
       style="font-style:normal;font-weight:normal;font-size:16px;line-height:1;font-family:sans-serif;fill:#000000;fill-opacity:1;stroke:none"
       x="554.24524"
       y="625.23889"
       id="text9-7"><tspan
         sodipodi:role="line"
         id="tspan9-7"
         x="554.24524"
         y="625.23889"
         style="font-size:16px;line-height:1">fr_11.html</tspan><tspan
         sodipodi:role="line"
         x="554.24524"
         y="641.23889"
         style="font-size:16px;line-height:1"
         id="tspan28">fr_13.html</tspan><tspan
         sodipodi:role="line"
         x="554.24524"
         y="657.23889"
         id="tspan18-5"
         style="font-size:16px;line-height:1">en_all.html</tspan><tspan
         sodipodi:role="line"
         x="554.24524"
         y="673.23889"
         style="font-size:16px;line-height:1"
         id="tspan32">de_all.html</tspan><tspan
         sodipodi:role="line"
         x="554.24524"
         y="689.23889"
         id="tspan26-9"
         style="font-size:16px;line-height:1">es_misc.html</tspan></text>
  </g>
  <g
     inkscape:groupmode="layer"
     id="layer4"
     inkscape:label="Lines">
    <path
       style="display:inline;fill:none;fill-rule:evenodd;stroke:#0000ff;stroke-width:2.64567;stroke-linecap:butt;stroke-linejoin:miter;stroke-dasharray:none;stroke-opacity:1;marker-end:url(#marker21-9-7)"
       d="m 205.3383,482.74535 53.36146,-1.04556"
       id="path28-6"
       inkscape:connector-type="polyline"
       inkscape:connector-curvature="0" />
    <path
       style="display:inline;fill:none;fill-rule:evenodd;stroke:#0000a3;stroke-width:2.64567;stroke-linecap:butt;stroke-linejoin:miter;stroke-dasharray:none;stroke-opacity:1;marker-end:url(#marker21-9-74)"
       d="m 471.98162,475.16581 0.34413,-129.56716"
       id="path28-5"
       inkscape:connector-type="polyline"
       inkscape:connector-curvature="0" />
    <path
       style="display:inline;fill:none;fill-rule:evenodd;stroke:#000000;stroke-width:5.66929;stroke-linecap:butt;stroke-linejoin:miter;stroke-dasharray:none;stroke-opacity:1"
       d="m 506.95036,477.92351 -186.90358,0.50751"
       id="path15-3-1"
       inkscape:connector-type="polyline"
       inkscape:connector-curvature="0" />
    <path
       style="display:inline;fill:none;fill-rule:evenodd;stroke:#000000;stroke-width:2.64567;stroke-linecap:butt;stroke-linejoin:miter;stroke-dasharray:none;stroke-opacity:1;marker-start:url(#marker21-9-0)"
       d="M 267.14385,455.38765 213.72518,396.58281"
       id="path15-3-7"
       inkscape:connector-type="polyline"
       inkscape:connector-curvature="0" />
    <path
       style="fill:none;stroke:#369c31;stroke-width:2.64566929;stroke-linecap:butt;stroke-linejoin:miter;stroke-dasharray:none;stroke-dashoffset:0;stroke-opacity:1;marker-end:url(#marker21-9-5)"
       d="m 317.03472,286.99946 44.82679,0.0911 42.79998,-0.12301"
       id="path23"
       sodipodi:nodetypes="ccc" />
    <path
       style="fill:none;stroke:#000000;stroke-width:2.26772;stroke-linecap:butt;stroke-linejoin:miter;stroke-dasharray:6.80315, 6.80315;stroke-dashoffset:0;stroke-opacity:1;marker-end:url(#Tail)"
       d="m 482.3607,281.29473 44.82679,0.0911 41.33106,-45.5662"
       id="path23-6"
       sodipodi:nodetypes="ccc" />
    <path
       style="fill:none;stroke:#369c31;stroke-width:2.26772;stroke-linecap:butt;stroke-linejoin:miter;stroke-dasharray:none;stroke-dashoffset:0;stroke-opacity:1;marker-end:url(#marker21-9-5)"
       d="m 351.93343,286.64177 0.44837,-220.8879 50.15706,-0.223956"
       id="path24"
       sodipodi:nodetypes="ccc" />
    <path
       style="fill:none;stroke:#0000d5;stroke-width:2.64567;stroke-linecap:butt;stroke-linejoin:miter;stroke-dasharray:none;stroke-dashoffset:0;stroke-opacity:1;marker-end:url(#marker21-9-5-1)"
       d="m 150.2859,129.20511 298.26655,0.90946 0.14656,116.56604"
       id="path24-9"
       sodipodi:nodetypes="ccc" />
    <path
       style="display:inline;fill:none;fill-rule:evenodd;stroke:#369c31;stroke-width:2.64567;stroke-linecap:butt;stroke-linejoin:miter;stroke-dasharray:none;stroke-opacity:1;marker-end:url(#Triangle)"
       d="m 206.84656,287.8272 52.89941,-0.8146"
       id="path15"
       inkscape:connector-type="polyline"
       inkscape:connector-curvature="0" />
    <path
       style="display:inline;fill:none;fill-rule:evenodd;stroke:#000000;stroke-width:2.26772;stroke-linecap:butt;stroke-linejoin:miter;stroke-dasharray:none;stroke-opacity:1;marker-end:url(#marker21)"
       d="m 149.522,33.890327 80.87459,-0.260193"
       id="path18"
       inkscape:connector-type="polyline"
       inkscape:connector-curvature="0" />
    <path
       style="display:inline;fill:none;fill-rule:evenodd;stroke:#880000;stroke-width:2.26772;stroke-linecap:butt;stroke-linejoin:miter;stroke-dasharray:none;stroke-opacity:1;marker-end:url(#marker21-9)"
       d="m 150.26927,54.422374 80.45955,-0.06425"
       id="path18-2"
       inkscape:connector-type="polyline"
       inkscape:connector-curvature="0" />
    <path
       style="display:inline;fill:none;fill-rule:evenodd;stroke:#6a0000;stroke-width:2.26772;stroke-linecap:butt;stroke-linejoin:miter;stroke-dasharray:none;stroke-opacity:1;marker-end:url(#marker21-9-5)"
       d="m 343.59066,37.32733 69.86235,0.187432"
       id="path18-2-2"
       inkscape:connector-type="polyline"
       inkscape:connector-curvature="0" />
    <path
       style="display:inline;fill:none;fill-rule:evenodd;stroke:#700000;stroke-width:2.64567;stroke-linecap:butt;stroke-linejoin:miter;stroke-dasharray:none;stroke-opacity:1;marker-end:url(#marker21-9-5-4)"
       d="M 505.46992,475.12069 503.85175,122.03136"
       id="path18-2-2-0"
       inkscape:connector-type="polyline"
       inkscape:connector-curvature="0" />
    <path
       style="display:inline;fill:none;fill-rule:evenodd;stroke:#a50000;stroke-width:2.64567;stroke-linecap:butt;stroke-linejoin:miter;stroke-dasharray:none;stroke-opacity:1;marker-end:url(#marker21-9-5-4-6)"
       d="m 210.1199,630.40784 52.08172,-93.75469"
       id="path18-2-2-0-4"
       inkscape:connector-type="polyline"
       inkscape:connector-curvature="0" />
    <path
       style="display:inline;fill:none;fill-rule:evenodd;stroke:#000000;stroke-width:2.64567;stroke-linecap:butt;stroke-linejoin:miter;stroke-dasharray:none;stroke-opacity:1;marker-start:url(#marker21-9)"
       d="m 220.73861,354.14779 43.77541,-0.10686"
       id="path15-3"
       inkscape:connector-type="polyline"
       inkscape:connector-curvature="0" />
    <path
       style="display:inline;fill:none;fill-rule:evenodd;stroke:#000000;stroke-width:2.64567;stroke-linecap:butt;stroke-linejoin:miter;stroke-dasharray:none;stroke-opacity:1;marker-start:url(#marker21-9-8)"
       d="m 455.20391,521.32965 -0.10686,-43.77541"
       id="path15-3-6"
       inkscape:connector-type="polyline"
       inkscape:connector-curvature="0" />
    <path
       style="display:inline;fill:none;fill-rule:evenodd;stroke:#000000;stroke-width:2.64567;stroke-linecap:butt;stroke-linejoin:miter;stroke-dasharray:none;stroke-opacity:1;marker-start:url(#marker21-9-8-6)"
       d="m 400.72864,582.65811 27.75428,-0.21941"
       id="path15-3-6-7"
       inkscape:connector-type="polyline"
       inkscape:connector-curvature="0" />
    <path
       style="fill:none;stroke:#000000;stroke-width:2.26772;stroke-linecap:butt;stroke-linejoin:miter;stroke-dasharray:6.80315, 6.80315;stroke-dashoffset:0;stroke-opacity:1;marker-end:url(#marker33)"
       d="m 490.078,77.110865 44.82679,-0.0911 22.67564,24.999185 18.65542,20.56701"
       id="path23-6-4"
       sodipodi:nodetypes="cccc" />
    <path
       style="fill:none;stroke:#000000;stroke-width:3.02362205;stroke-linecap:butt;stroke-linejoin:miter;stroke-dasharray:none;stroke-dashoffset:0;stroke-opacity:1;marker-start:url(#marker21)"
       d="m 325.94738,360.93492 42.79998,0.12301 0.0925,-52.2099 35.43775,-0.45531"
       id="path23-67"
       sodipodi:nodetypes="ccc" />
    <path
       style="fill:none;stroke:#000000;stroke-width:3.02362205;stroke-linecap:butt;stroke-linejoin:miter;stroke-dasharray:none;stroke-dashoffset:0;stroke-opacity:1"
       d="m 368.9673,307.36782 0.0682,-208.322986 29.27202,0.01868"
       id="path23-67-9"
       sodipodi:nodetypes="ccc" />
    <path
       style="fill:none;stroke:#369c31;stroke-width:2.26772;stroke-linecap:butt;stroke-linejoin:miter;stroke-dasharray:none;stroke-dashoffset:0;stroke-opacity:1;marker-end:url(#marker21-9-5-6)"
       d="m 351.9217,286.71804 0.53532,150.54617 193.99644,-0.27412"
       id="path24-8"
       sodipodi:nodetypes="ccc" />
    <path
       style="display:inline;fill:none;fill-rule:evenodd;stroke:#000000;stroke-width:2.64567;stroke-linecap:butt;stroke-linejoin:miter;stroke-dasharray:none;stroke-opacity:1;marker-start:url(#marker21-9-8-5)"
       d="m 597.81119,578.43518 0.0565,-47.83522"
       id="path15-3-6-3"
       inkscape:connector-type="polyline"
       inkscape:connector-curvature="0" />
    <path
       style="display:inline;fill:none;fill-rule:evenodd;stroke:#00007c;stroke-width:2.64567;stroke-linecap:butt;stroke-linejoin:miter;stroke-dasharray:none;stroke-opacity:1;marker-start:url(#marker21-9-8-9)"
       d="m 544.48422,477.7165 -37.73464,0.3841"
       id="path15-3-6-33"
       inkscape:connector-type="polyline"
       inkscape:connector-curvature="0"
       sodipodi:nodetypes="cc" />
    <path
       style="display:inline;fill:none;fill-rule:evenodd;stroke:#000000;stroke-width:3.02362;stroke-linecap:butt;stroke-linejoin:miter;stroke-dasharray:3.02362, 3.02362;stroke-dashoffset:0;stroke-opacity:1;marker-end:url(#SemiCircleFilled)"
       d="m 492.45036,52.366189 196.30305,-0.42114"
       id="path34"
       inkscape:connector-type="polyline"
       inkscape:connector-curvature="0" />
    <path
       style="display:inline;fill:none;fill-rule:evenodd;stroke:#000000;stroke-width:3.02362;stroke-linecap:butt;stroke-linejoin:miter;stroke-dasharray:3.02362, 3.02362;stroke-dashoffset:0;stroke-opacity:1;marker-end:url(#SemiCircleFilled-8)"
       d="m 483.34658,295.27839 207.2438,-0.18524"
       id="path34-1"
       inkscape:connector-type="polyline"
       inkscape:connector-curvature="0" />
    <path
       style="display:inline;fill:none;fill-rule:evenodd;stroke:#000000;stroke-width:3.02362;stroke-linecap:butt;stroke-linejoin:miter;stroke-dasharray:3.02362, 3.02362;stroke-dashoffset:0;stroke-opacity:1;marker-end:url(#SemiCircleFilled-1)"
       d="m 627.06891,167.52289 62.81686,0.0371"
       id="path34-8"
       inkscape:connector-type="polyline"
       inkscape:connector-curvature="0" />
    <path
       style="display:inline;fill:none;fill-rule:evenodd;stroke:#000000;stroke-width:3.02362;stroke-linecap:butt;stroke-linejoin:miter;stroke-dasharray:3.02362, 3.02362;stroke-dashoffset:0;stroke-opacity:1;marker-end:url(#SemiCircleFilled-1-6)"
       d="m 627.08471,459.34596 62.81686,0.0371"
       id="path34-8-4"
       inkscape:connector-type="polyline"
       inkscape:connector-curvature="0" />
    <path
       style="display:inline;fill:none;fill-rule:evenodd;stroke:#000000;stroke-width:3.02362;stroke-linecap:butt;stroke-linejoin:miter;stroke-dasharray:3.02362, 3.02362;stroke-dashoffset:0;stroke-opacity:1;marker-end:url(#SemiCircleFilled-6)"
       d="m 492.32223,557.21905 197.47932,0.6909"
       id="path34-2"
       inkscape:connector-type="polyline"
       inkscape:connector-curvature="0" />
    <path
       style="fill:#369c31;fill-opacity:1;fill-rule:evenodd;stroke-width:0;stroke-linecap:round;stroke-linejoin:round;stroke-miterlimit:0;stroke-dasharray:none"
       id="path4"
       sodipodi:type="arc"
       sodipodi:cx="351.99994"
       sodipodi:cy="286.90451"
       sodipodi:rx="3.6690431"
       sodipodi:ry="3.7750063"
       sodipodi:start="0"
       sodipodi:end="6.2667301"
       sodipodi:arc-type="slice"
       d="m 355.66898,286.90451 a 3.6690431,3.7750063 0 0 1 -3.65395,3.77497 3.6690431,3.7750063 0 0 1 -3.68401,-3.74391 3.6690431,3.7750063 0 0 1 3.62364,-3.80578 3.6690431,3.7750063 0 0 1 3.71383,3.7126 l -3.66855,0.0621 z" />
    <path
       style="fill:#000000;fill-opacity:1;fill-rule:evenodd;stroke-width:0;stroke-linecap:round;stroke-linejoin:round;stroke-miterlimit:0;stroke-dasharray:none"
       id="path4-5"
       sodipodi:type="arc"
       sodipodi:cx="369.12744"
       sodipodi:cy="308.72083"
       sodipodi:rx="3.6690431"
       sodipodi:ry="3.7750063"
       sodipodi:start="0"
       sodipodi:end="6.2667301"
       sodipodi:arc-type="slice"
       d="m 372.79648,308.72083 a 3.6690431,3.7750063 0 0 1 -3.65394,3.77497 3.6690431,3.7750063 0 0 1 -3.68402,-3.74392 3.6690431,3.7750063 0 0 1 3.62364,-3.80577 3.6690431,3.7750063 0 0 1 3.71383,3.7126 l -3.66855,0.0621 z" />
  </g>
  <metadata
     id="metadata1">
    <rdf:RDF>
      <cc:Work
         rdf:about="">
        <cc:license
           rdf:resource="http://creativecommons.org/licenses/by/4.0/" />
        <dc:creator>
          <cc:Agent>
            <dc:title>Andrej Ficko</dc:title>
          </cc:Agent>
        </dc:creator>
      </cc:Work>
      <cc:License
         rdf:about="http://creativecommons.org/licenses/by/4.0/">
        <cc:permits
           rdf:resource="http://creativecommons.org/ns#Reproduction" />
        <cc:permits
           rdf:resource="http://creativecommons.org/ns#Distribution" />
        <cc:requires
           rdf:resource="http://creativecommons.org/ns#Notice" />
        <cc:requires
           rdf:resource="http://creativecommons.org/ns#Attribution" />
        <cc:permits
           rdf:resource="http://creativecommons.org/ns#DerivativeWorks" />
      </cc:License>
    </rdf:RDF>
  </metadata>
</svg>
